…
which is now a numeric:

class(us_murder_rate)

## [1] "numeric"

Group then summarize with group_by

A common operation in data exploration is to first split data into groups and then compute summaries for each group. For example, we may want to compute the average and standard deviation for men’s and women’s heights separately. The group_by function helps us do this.

If we type this:

heights %>% group_by(sex)

## # A tibble: 1,050 x 2
## # Groups:   sex [2]
##    sex    height
##    <fct>   <dbl>
##  1 Male       75
##  2 Male       70
##  3 Male       68
##  4 Male       74
##  5 Male       61
##  6 Female     65
##  7 Female     66
##  8 Female     62
##  9 Female     66
## 10 Male       67
## # ... with 1,040 more rows
…
Compute the average and standard deviation for females, but for each age group separately rather than a selected decade as in question 1. Note that the age groups are defined by AgeDecade. Hint: rather than filtering by age and gender, filter by Gender and then use group_by.

Repeat exercise 4 for males.

We can actually combine both summaries for exercises 4 and 5 into one line of code. This is because group_by permits us to group by more than one variable. Obtain one big summary table using group_by(AgeDecade, Gender).

For males between the ages of 40-49, compare systolic blood pressure across race as reported in the Race1 variable. Order the resulting table from lowest to highest average systolic blood pressure.

Tibbles

Tidy data must be stored in data frames. We introduced the data frame in Section ?? and have been using the murders data frame throughout the book. In Section ?? we introduced the group_by function, which permits stratifying data before computing summary statistics. But where is the group information stored in the data frame?

murders %>% group_by(region)

## # A tibble: 51 x 6
## # Groups:   region [4]
##    state                abb   region    population total  rate
##    <chr>                <chr> <fct>          <dbl> <dbl> <dbl>
##  1 Alabama              AL    South        4779736   135  2.82
##  2 Alaska               AK    West          710231    19  2.68
##  3 Arizona              AZ    West         6392017   232  3.63
##  4 Arkansas             AR    South        2915918    93  3.19
##  5 California           CA    West        37253956  1257  3.37
##  6 Colorado             CO    West         5029196    65  1.29
##  7 Connecticut          CT    Northeast    3574097    97  2.71
##  8 Delaware             DE    South         897934    38  4.23
##  9 District of Columbia DC    South         601723    99 16.5 
## 10 Florida              FL    South       19687653   669  3.40
## # ... with 41 more rows
…
