…
That is, the classifier \(\hat{C}(x)\) returns the predicted category \(\hat{y}(X)\).

\[
\hat{y}(x) = \hat{C}(x)
\]

To build our first classifier, we will use the Default dataset from the ISLR package.

library(ISLR)
library(tibble)
as_tibble(Default)

## # A tibble: 10,000 × 4
##    default student balance income
##    <fct>   <fct>     <dbl>  <dbl>
##  1 No      No         730. 44362.
##  2 No      Yes        817. 12106.
##  3 No      No        1074. 31767.
##  4 No      No         529. 35704.
##  5 No      No         786. 38463.
##  6 No      Yes        920.  7492.
##  7 No      No         826. 24905.
##  8 No      Yes        809. 17600.
##  9 No      No        1161. 37469.
## 10 No      No           0  29275.
## # … with 9,990 more rows
…
## 
##     No    Yes 
## 0.9684 0.0316

This classifier does better than the previous. But the point is, in reality, to create a good classifier, we should obtain a test error better than 0.033, which is obtained by simply manipulating the prevalences. Next section, we’ll introduce much better classifiers which should have no problem accomplishing this task. Point is, think carefully about what you’re putting your classifier up against. Last March when we were very worried about COVID test accuracy, and when prevalance was, say, 1%, it was pointed out that we could make a 99% accurate COVID test by simply returning “No COVID” for every test! We’d be the new Theranos!

Logistic Regression

In this section, we continue our discussion of classification. We introduce our first model for classification, logistic regression. To begin, we return to the Default dataset from above.

library(ISLR)
library(tibble)
as_tibble(Default)

## # A tibble: 10,000 × 4
##    default student balance income
##    <fct>   <fct>     <dbl>  <dbl>
##  1 No      No         730. 44362.
##  2 No      Yes        817. 12106.
##  3 No      No        1074. 31767.
##  4 No      No         529. 35704.
##  5 No      No         786. 38463.
##  6 No      Yes        920.  7492.
##  7 No      No         826. 24905.
##  8 No      Yes        809. 17600.
##  9 No      No        1161. 37469.
## 10 No      No           0  29275.
## # … with 9,990 more rows
…
