…
tweet_words <- campaign_tweets %>%
  mutate(text = str_replace_all(text, links, ""))  %>%
  unnest_tokens(word, text, token = "tweets")

And we can now answer questions such as “what are the most commonly used words?”:

tweet_words %>%
  count(word) %>%
  arrange(desc(n))

Running this, we find a boring answer. But it is not surprising that these are the top words. The top words are not informative. The tidytext package has a database of these commonly used words, referred to as stop words, in text mining:

stop_words

## # A tibble: 1,149 x 2
##    word        lexicon
##    <chr>       <chr>  
##  1 a           SMART  
##  2 a's         SMART  
##  3 able        SMART  
##  4 about       SMART  
##  5 above       SMART  
##  6 according   SMART  
##  7 accordingly SMART  
##  8 across      SMART  
##  9 actually    SMART  
## 10 after       SMART  
## # … with 1,139 more rows
…
