Data Wrangling | Data Analytics
…
dat$key[1:5]

## [1] "1960_fertility"       "1960_fertility"       "1960_life_expectancy"
## [4] "1960_life_expectancy" "1961_fertility"

Encoding multiple variables in a column name is such a common problem that the tidyverse package includes a function to separate these columns into two or more. Apart from the data, the separate function takes three arguments: the name of the column to be separated, the names to be used for the new columns, and the character that separates the variables. So, a first attempt at this is:

dat %>% separate(col = key, into = c("year", "variable_name"), sep = "_")

The function does separate the values, but we run into a new problem. We receive the warning Additional pieces discarded in 112 rows [3, 4, 7,...]. (Earlier versions may give the error Too many values at 112 locations:) and that the life_expectancy variable is truncated to life. This is because the _ is used to separate life and expectancy, not just year and variable name! We could add a third column to catch this and let the separate function know which column to fill in with missing values, NA, when there is no third value. Here we tell it to fill the column on the right:

dat %>% separate(key, into = c("year", "first_variable_name", "second_variable_name"), fill = "right")

## # A tibble: 224 x 5
##    country     year  first_variable_name second_variable_name value
##    <chr>       <chr> <chr>               <chr>                <dbl>
##  1 Germany     1960  fertility           <NA>                  2.41
##  2 South Korea 1960  fertility           <NA>                  6.16
##  3 Germany     1960  life                expectancy           69.3 
##  4 South Korea 1960  life                expectancy           53.0 
##  5 Germany     1961  fertility           <NA>                  2.44
##  6 South Korea 1961  fertility           <NA>                  5.99
##  7 Germany     1961  life                expectancy           69.8 
##  8 South Korea 1961  life                expectancy           53.8 
##  9 Germany     1962  fertility           <NA>                  2.47
## 10 South Korea 1962  fertility           <NA>                  5.79
## # ... with 214 more rows

However, if we read the separate help file, we find that a better approach is to merge the last two variables when there is an extra separation:

dat %>% separate(key, into = c("year", "variable_name"), extra = "merge")

## # A tibble: 224 x 4
##    country     year  variable_name   value
##    <chr>       <chr> <chr>           <dbl>
##  1 Germany     1960  fertility        2.41
##  2 South Korea 1960  fertility        6.16
##  3 Germany     1960  life_expectancy 69.3 
##  4 South Korea 1960  life_expectancy 53.0 
##  5 Germany     1961  fertility        2.44
##  6 South Korea 1961  fertility        5.99
##  7 Germany     1961  life_expectancy 69.8 
##  8 South Korea 1961  life_expectancy 53.8 
##  9 Germany     1962  fertility        2.47
## 10 South Korea 1962  fertility        5.79
## # ... with 214 more rows

This achieves the separation we wanted. However, we are not done yet. We need to create a column for each variable. As we learned, the spread function can do this:

dat %>%
  separate(key, c("year", "variable_name"), extra = "merge") %>%
  spread(variable_name, value)

## # A tibble: 112 x 4
##    country year  fertility life_expectancy
##    <chr>   <chr>     <dbl>           <dbl>
##  1 Germany 1960       2.41            69.3
##  2 Germany 1961       2.44            69.8
##  3 Germany 1962       2.47            70.0
##  4 Germany 1963       2.49            70.1
##  5 Germany 1964       2.49            70.7
##  6 Germany 1965       2.48            70.6
##  7 Germany 1966       2.44            70.8
##  8 Germany 1967       2.37            71.0
##  9 Germany 1968       2.28            70.6
## 10 Germany 1969       2.17            70.5
## # ... with 102 more rows

The data is now in tidy format with one row for each observation with three variables: year, fertility, and life expectancy.

unite

It is sometimes useful to do the inverse of separate, unite two columns into one. To demonstrate how to use unite, we show code that, although not the optimal approach, serves as an illustration. Suppose that we did not know about extra and used this command to separate:

dat %>%
  separate(key, c("year", "first_variable_name", "second_variable_name"), fill = "right")

## # A tibble: 224 x 5
##    country     year  first_variable_name second_variable_name value
##    <chr>       <chr> <chr>               <chr>                <dbl>
##  1 Germany     1960  fertility           <NA>                  2.41
##  2 South Korea 1960  fertility           <NA>                  6.16
##  3 Germany     1960  life                expectancy           69.3 
##  4 South Korea 1960  life                expectancy           53.0 
##  5 Germany     1961  fertility           <NA>                  2.44
##  6 South Korea 1961  fertility           <NA>                  5.99
##  7 Germany     1961  life                expectancy           69.8 
##  8 South Korea 1961  life                expectancy           53.8 
##  9 Germany     1962  fertility           <NA>                  2.47
## 10 South Korea 1962  fertility           <NA>                  5.79
## # ... with 214 more rows

We can achieve the same final result by uniting the second and third columns, then spreading the columns and renaming fertility_NA to fertility:

dat %>%
  separate(key, c("year", "first_variable_name", "second_variable_name"), fill = "right") %>%
  unite(variable_name, first_variable_name, second_variable_name) %>%
  spread(variable_name, value) %>%
  rename(fertility = fertility_NA)

## # A tibble: 112 x 4
##    country year  fertility life_expectancy
##    <chr>   <chr>     <dbl>           <dbl>
##  1 Germany 1960       2.41            69.3
##  2 Germany 1961       2.44            69.8
##  3 Germany 1962       2.47            70.0
##  4 Germany 1963       2.49            70.1
##  5 Germany 1964       2.49            70.7
##  6 Germany 1965       2.48            70.6
##  7 Germany 1966       2.44            70.8
##  8 Germany 1967       2.37            71.0
##  9 Germany 1968       2.28            70.6
## 10 Germany 1969       2.17            70.5
## # ... with 102 more rows
…
