Linear Regression III | Data Analytics
…
The first column denotes group. We created groups and for each one we generated a pair of independent vectors, \(X\) and \(Y\), with 25 observations each, stored in the second and third columns. Because we constructed the simulation, we know that \(X\) and \(Y\) are not correlated.

Next, we compute the correlation between X and Y for each group and look at the max:

res <- sim_data %>%
  group_by(group) %>%
  summarize(r = cor(x, y)) %>%
  arrange(desc(r))
res

## # A tibble: 1,000,000 x 2
##     group     r
##     <int> <dbl>
##  1 677492 0.798
##  2 410425 0.795
##  3 688540 0.772
##  4  38208 0.766
##  5 956220 0.757
##  6 432519 0.756
##  7 449430 0.755
##  8 288426 0.750
##  9 958989 0.747
## 10 123174 0.746
## # ... with 999,990 more rows
…
