Introduction to Regression | Data Analytics
…
We just manipulated one of the model coefficients and held everything else at its mean. We can manipulate multiple variables too and encode them all on the graph. For instance, what is the effect of windspeed and cloud cover on the temperature?

We’ll follow the same process, but vary both windSpeed and cloudCover_scaled. Instead of using tibble(), we use exapnd_grid(), which creates every combination of the variables we specify. Instead of varying cloud cover by every possible value (like from 0 to 100), we’ll choose four possible cloud cover types: 0%, 33%, 66%, and 100%. Everything else will be at its mean.

newdata_fancy <- expand_grid(windSpeed = seq(0, 8, 0.5),
                             pressure = mean(weather_atl_summer$pressure),
                             precipProbability_scaled = mean(weather_atl_summer$precipProbability_scaled),
                             moonPhase_scaled = mean(weather_atl_summer$moonPhase_scaled),
                             humidity_scaled = mean(weather_atl_summer$humidity_scaled),
                             cloudCover_scaled = c(0, 33, 66, 100))
newdata_fancy

## # A tibble: 68 x 6
##    windSpeed pressure precipProbability_scaled moonPhase_scaled humidity_scaled cloudCover_scaled
##        <dbl>    <dbl>                    <dbl>            <dbl>           <dbl>             <dbl>
##  1       0      1016.                     40.2             50.7            64.8                 0
##  2       0      1016.                     40.2             50.7            64.8                33
##  3       0      1016.                     40.2             50.7            64.8                66
##  4       0      1016.                     40.2             50.7            64.8               100
##  5       0.5    1016.                     40.2             50.7            64.8                 0
##  6       0.5    1016.                     40.2             50.7            64.8                33
##  7       0.5    1016.                     40.2             50.7            64.8                66
##  8       0.5    1016.                     40.2             50.7            64.8               100
##  9       1      1016.                     40.2             50.7            64.8                 0
## 10       1      1016.                     40.2             50.7            64.8                33
## # … with 58 more rows
…
