Visualizations in Practice | Data Analytics
…
Hans Rosling conveyed actual data-based trends in a dramatic way of his own, using effective data visualization. This section is based on two talks that exemplify this approach to education: [New Insights on Poverty]3 and The Best Stats You’ve Ever Seen4. Specifically, in this section, we use data to attempt to answer the following two questions:

Is it a fair characterization of today’s world to say it is divided into western rich nations and the developing world in Africa, Asia, and Latin America?

Has income inequality across countries worsened during the last 40 years?

To answer these questions, we will be using the gapminder dataset provided in dslabs. This dataset was created using a number of spreadsheets available from the Gapminder Foundation. You can access the table like this:

library(tidyverse)
library(dslabs)
library(ggrepel)
data(gapminder)
gapminder %>% as_tibble()

## # A tibble: 10,545 x 9
##    country  year infant_mortality life_expectancy fertility population      gdp
##    <fct>   <int>            <dbl>           <dbl>     <dbl>      <dbl>    <dbl>
##  1 Albania  1960            115.             62.9      6.19    1636054 NA      
##  2 Algeria  1960            148.             47.5      7.65   11124892  1.38e10
##  3 Angola   1960            208              36.0      7.32    5270844 NA      
##  4 Antigu…  1960             NA              63.0      4.43      54681 NA      
##  5 Argent…  1960             59.9            65.4      3.11   20619075  1.08e11
##  6 Armenia  1960             NA              66.9      4.55    1867396 NA      
##  7 Aruba    1960             NA              65.7      4.82      54208 NA      
##  8 Austra…  1960             20.3            70.9      3.45   10292328  9.67e10
##  9 Austria  1960             37.3            68.8      2.7     7065525  5.24e10
## 10 Azerba…  1960             NA              61.3      5.57    3897889 NA      
## # … with 10,535 more rows, and 2 more variables: continent <fct>, region <fct>
…
